8,2,543.17,135.97,555.55,145.53
10,2,533.31,137.41,546.63,146.57
9,2,538.24,136.69,551.09,146.05
13,2,524.69,134.47,536.64,145.59
11,2,530.44,136.43,543.3,146.24
12,2,527.57,135.45,539.97,145.92
16,2,523.13,138.39,534.29,146.9
14,2,524.17,135.78,535.86,146.03
15,2,523.65,137.09,535.07,146.46
19,1,548.19,136.43,555.05,146.57
19,2,523.32,138.72,534.29,146.24
17,2,523.19,138.5,534.29,146.68
18,2,523.26,138.61,534.29,146.46
20,1,544.28,135.12,551.52,146.24
20,2,523.13,138.72,535.07,147.23
30,1,513.53,139.7,522.74,153.77
21,1,541.2,135.58,548.64,147
22,1,536.44,136.11,542.51,147.88
23,1,530.57,135.78,537.62,149.84
24,1,528.02,137.09,534.09,151.81
25,1,523.13,137.41,530.96,150.82
26,1,519.8,136.76,527.63,150.5
27,1,517.25,136.11,525.67,152.46
28,1,515.69,137.74,523.91,152.13
29,1,514.31,139.05,522.54,153.77
30,2,524.11,139.05,534.29,146.57
21,2,523.23,138.75,534.99,147.16
22,2,523.32,138.79,534.92,147.1
23,2,523.42,138.82,534.84,147.03
24,2,523.52,138.85,534.76,146.96
25,2,523.62,138.89,534.68,146.9
26,2,523.71,138.92,534.6,146.83
27,2,523.81,138.95,534.52,146.77
28,2,523.91,138.98,534.45,146.7
29,2,524.01,139.02,534.37,146.64
40,1,514.31,140.36,520.97,154.42
31,1,513.61,139.77,522.56,153.83
32,1,513.69,139.83,522.38,153.9
33,1,513.77,139.9,522.21,153.96
34,1,513.84,139.96,522.03,154.03
35,1,513.92,140.03,521.85,154.09
36,1,514,140.1,521.68,154.16
37,1,514.08,140.16,521.5,154.23
38,1,514.16,140.23,521.33,154.29
39,1,514.24,140.29,521.15,154.36
40,2,497.86,141.01,510.01,149.52
31,2,521.48,139.25,531.86,146.87
32,2,523.71,135.12,532.72,145.92
33,2,523.71,135.45,532.14,146.24
34,2,520.39,133.49,529.2,144.28
35,2,517.84,133.49,528.02,142.65
36,2,514.12,134.8,523.13,144.28
37,2,510.59,137.09,520.19,146.9
38,2,505.7,137.41,517.64,147.23
39,2,501,138.72,512.94,148.21
45,1,513.92,140.03,521.36,154.09
41,1,514.24,140.29,521.05,154.36
42,1,514.16,140.23,521.13,154.29
43,1,514.08,140.16,521.21,154.23
44,1,514,140.1,521.29,154.16
45,2,491.01,140.03,501.59,151.81
41,2,496.49,140.82,508.32,149.97
42,2,495.12,140.62,506.64,150.43
43,2,493.75,140.42,504.95,150.89
44,2,492.38,140.23,503.27,151.35
50,1,511.57,139.38,520.19,149.52
46,1,513.45,139.9,521.13,153.18
47,1,512.98,139.77,520.89,152.26
48,1,512.51,139.64,520.66,151.35
49,1,512.04,139.51,520.42,150.43
50,2,491.4,144.28,501.19,157.37
46,2,491.09,140.88,501.51,152.92
47,2,491.17,141.73,501.43,154.03
48,2,491.25,142.58,501.35,155.14
49,2,491.32,143.43,501.27,156.25
55,1,501,142.97,507.26,156.06
51,1,509.46,140.1,517.6,150.82
52,1,507.34,140.82,515.02,152.13
53,1,505.23,141.53,512.43,153.44
54,1,503.11,142.25,509.85,154.75
55,2,491.6,143.96,500.61,153.77
51,2,491.44,144.22,501.08,156.65
52,2,491.48,144.15,500.96,155.93
53,2,491.52,144.09,500.84,155.21
54,2,491.56,144.02,500.72,154.49
60,1,492.38,144.61,500.61,158.67
56,1,499.27,143.3,505.93,156.58
57,1,497.55,143.63,504.6,157.1
58,1,495.83,143.96,503.27,157.63
59,1,494.1,144.28,501.94,158.15
60,2,491.01,143.63,499.63,154.42
56,2,491.48,143.89,500.41,153.9
57,2,491.36,143.82,500.21,154.03
58,2,491.25,143.76,500.02,154.16
59,2,491.13,143.69,499.82,154.29
65,1,490.62,147.23,498.26,159.66
61,1,492.03,145.13,500.14,158.87
62,1,491.68,145.66,499.67,159.07
63,1,491.32,146.18,499.2,159.26
64,1,490.97,146.7,498.73,159.46
65,2,491.4,142.97,499.43,154.42
61,2,491.09,143.5,499.59,154.42
62,2,491.17,143.37,499.55,154.42
63,2,491.25,143.24,499.51,154.42
64,2,491.32,143.1,499.47,154.42
70,1,491.79,146.24,499.24,160.64
66,1,490.85,147.03,498.45,159.85
67,1,491.09,146.83,498.65,160.05
68,1,491.32,146.64,498.84,160.24
69,1,491.56,146.44,499.04,160.44
70,2,479.85,145.59,492.58,157.04
66,2,489.09,143.5,498.06,154.95
67,2,486.78,144.02,496.69,155.47
68,2,484.47,144.54,495.32,155.99
69,2,482.16,145.07,493.95,156.52
75,1,491.79,147.23,498.26,159.98
71,1,491.79,146.44,499.04,160.51
72,1,491.79,146.64,498.84,160.37
73,1,491.79,146.83,498.65,160.24
74,1,491.79,147.03,498.45,160.11
75,2,472.41,150.17,482.79,160.31
71,2,478.36,146.51,490.62,157.69
72,2,476.87,147.42,488.66,158.35
73,2,475.38,148.34,486.7,159
74,2,473.89,149.25,484.74,159.66
80,1,491.6,147.55,498.65,160.31
76,1,491.75,147.29,498.33,160.05
77,1,491.72,147.36,498.41,160.11
78,1,491.68,147.42,498.49,160.18
79,1,491.64,147.49,498.57,160.24
80,2,473.19,155.4,483.57,166.2
76,2,472.56,151.22,482.94,161.49
77,2,472.72,152.26,483.1,162.66
78,2,472.88,153.31,483.26,163.84
79,2,473.03,154.36,483.41,165.02
85,1,488.07,149.52,495.91,162.27
81,1,490.89,147.95,498.1,160.7
82,1,490.19,148.34,497.55,161.09
83,1,489.48,148.73,497,161.49
84,1,488.78,149.12,496.45,161.88
85,2,473.19,155.4,482.98,166.2
81,2,473.19,155.4,483.45,166.2
82,2,473.19,155.4,483.33,166.2
83,2,473.19,155.4,483.22,166.2
84,2,473.19,155.4,483.1,166.2
90,1,479.85,156.71,489.05,171.76
86,1,486.43,150.95,494.54,164.17
87,1,484.78,152.39,493.16,166.07
88,1,483.14,153.83,491.79,167.96
89,1,481.49,155.27,490.42,169.86
90,2,472.99,156.06,482.79,165.22
86,2,473.15,155.53,482.94,166
87,2,473.11,155.66,482.9,165.8
88,2,473.07,155.8,482.86,165.61
89,2,473.03,155.93,482.82,165.41
95,1,477.3,160.96,486.51,173.72
91,1,479.34,157.56,488.54,172.15
92,1,478.83,158.41,488.03,172.54
93,1,478.32,159.26,487.52,172.93
94,1,477.81,160.11,487.02,173.33
95,2,473.39,154.75,481.22,166.52
91,2,473.07,155.8,482.47,165.48
92,2,473.15,155.53,482.16,165.74
93,2,473.23,155.27,481.85,166
94,2,473.31,155.01,481.53,166.26
100,1,477.69,160.31,485.33,174.7
96,1,477.38,160.83,486.27,173.92
97,1,477.46,160.7,486.04,174.11
98,1,477.54,160.57,485.8,174.31
99,1,477.62,160.44,485.57,174.5
100,2,470.25,150.17,480.83,165.22
96,2,472.76,153.83,481.14,166.26
97,2,472.13,152.92,481.06,166
98,2,471.51,152,480.98,165.74
99,2,470.88,151.09,480.91,165.48
105,1,476.32,160.64,485.14,174.7
101,1,477.42,160.37,485.29,174.7
102,1,477.15,160.44,485.25,174.7
103,1,476.87,160.51,485.21,174.7
104,1,476.6,160.57,485.17,174.7
105,2,461.05,162.6,473.97,175.03
101,2,468.41,152.66,479.46,167.18
102,2,466.57,155.14,478.09,169.14
103,2,464.73,157.63,476.71,171.1
104,2,462.89,160.11,475.34,173.07
110,1,476.91,160.64,485.33,174.37
106,1,476.44,160.64,485.17,174.64
107,1,476.56,160.64,485.21,174.57
108,1,476.68,160.64,485.25,174.5
109,1,476.79,160.64,485.29,174.44
110,2,457.33,166.85,468.88,179.93
106,2,460.3,163.45,472.95,176.01
107,2,459.56,164.3,471.94,176.99
108,2,458.82,165.15,470.92,177.97
109,2,458.07,166,469.9,178.95
115,1,476.71,160.64,484.94,174.37
111,1,476.87,160.64,485.25,174.37
112,1,476.83,160.64,485.17,174.37
113,1,476.79,160.64,485.1,174.37
114,1,476.75,160.64,485.02,174.37
115,2,458.31,170.78,469.27,183.86
111,2,457.52,167.64,468.96,180.72
112,2,457.72,168.42,469.04,181.5
113,2,457.91,169.21,469.12,182.29
114,2,458.11,169.99,469.19,183.07
120,1,469.66,168.49,479.46,184.19
116,1,475.3,162.21,483.84,176.34
117,1,473.89,163.78,482.75,178.3
118,1,472.48,165.35,481.65,180.26
119,1,471.07,166.92,480.55,182.22
120,2,457.91,170.45,468.49,183.21
116,2,458.23,170.71,469.12,183.73
117,2,458.15,170.65,468.96,183.6
118,2,458.07,170.58,468.8,183.47
119,2,457.99,170.51,468.65,183.34
125,1,462.81,173.72,473.19,186.15
121,1,468.29,169.53,478.2,184.58
122,1,466.92,170.58,476.95,184.97
123,1,465.55,171.63,475.7,185.36
124,1,464.18,172.67,474.44,185.76
125,2,457.33,169.47,466.92,181.9
121,2,457.8,170.25,468.18,182.94
122,2,457.68,170.06,467.86,182.68
123,2,457.56,169.86,467.55,182.42
124,2,457.44,169.66,467.24,182.16
130,1,460.26,175.03,468.1,193.02
126,1,462.3,173.98,472.17,187.52
127,1,461.79,174.24,471.15,188.9
128,1,461.28,174.5,470.13,190.27
129,1,460.77,174.77,469.12,191.64
130,2,456.15,169.47,464.77,184.51
126,2,457.09,169.47,466.49,182.42
127,2,456.86,169.47,466.06,182.94
128,2,456.62,169.47,465.63,183.47
129,2,456.39,169.47,465.2,183.99
135,1,460.07,176.01,468.29,193.67
131,1,460.23,175.22,468.14,193.15
132,1,460.19,175.42,468.18,193.28
133,1,460.15,175.62,468.22,193.41
134,1,460.11,175.81,468.25,193.54
135,2,446.16,171.1,461.44,185.49
131,2,454.15,169.79,464.1,184.71
132,2,452.16,170.12,463.44,184.91
133,2,450.16,170.45,462.77,185.1
134,2,448.16,170.78,462.11,185.3
140,1,460.26,176.01,467.71,191.71
136,1,460.11,176.01,468.18,193.28
137,1,460.15,176.01,468.06,192.89
138,1,460.19,176.01,467.94,192.49
139,1,460.23,176.01,467.82,192.1
140,2,432.46,179.61,445.58,193.02
136,2,443.42,172.8,458.27,187
137,2,440.68,174.5,455.09,188.5
138,2,437.94,176.21,451.92,190.01
139,2,435.2,177.91,448.75,191.51
145,1,460,179,469,193
141,1,460.21,176.61,467.96,191.97
142,1,460.16,177.21,468.22,192.23
143,1,460.11,177.8,468.48,192.48
144,1,460.05,178.4,468.74,192.74
145,2,432,188,446,200
141,2,432.37,181.29,445.66,194.41
142,2,432.27,182.96,445.75,195.81
143,2,432.18,184.64,445.83,197.21
144,2,432.09,186.32,445.92,198.6
150,1,453,181,466,197
146,1,458.6,179.4,468.4,193.8
147,1,457.2,179.8,467.8,194.6
148,1,455.8,180.2,467.2,195.4
149,1,454.4,180.6,466.6,196.2
150,2,432,189,447,201
146,2,432,188.2,446.2,200.2
147,2,432,188.4,446.4,200.4
148,2,432,188.6,446.6,200.6
149,2,432,188.8,446.8,200.8
155,1,440,193,453,207
151,1,450.4,183.4,463.4,199
152,1,447.8,185.8,460.8,201
153,1,445.2,188.2,458.2,203
154,1,442.6,190.6,455.6,205
155,2,433,188,447,200
151,2,432.2,188.8,447,200.8
152,2,432.4,188.6,447,200.6
153,2,432.6,188.4,447,200.4
154,2,432.8,188.2,447,200.2
160,1,435,197,446,214
156,1,439,193.8,451.6,208.4
157,1,438,194.6,450.2,209.8
158,1,437,195.4,448.8,211.2
159,1,436,196.2,447.4,212.6
160,2,432,188,443,203
156,2,432.8,188,446.2,200.6
157,2,432.6,188,445.4,201.2
158,2,432.4,188,444.6,201.8
159,2,432.2,188,443.8,202.4
165,1,435,198,446,215
161,1,435,197.2,446,214.2
162,1,435,197.4,446,214.4
163,1,435,197.6,446,214.6
164,1,435,197.8,446,214.8
165,2,428,187,441,202
161,2,431.2,187.8,442.6,202.8
162,2,430.4,187.6,442.2,202.6
163,2,429.6,187.4,441.8,202.4
164,2,428.8,187.2,441.4,202.2
170,1,436,198,447,215
166,1,435.2,198,446.2,215
167,1,435.4,198,446.4,215
168,1,435.6,198,446.6,215
169,1,435.8,198,446.8,215
170,2,408,204,429,218
166,2,424,190.4,438.6,205.2
167,2,420,193.8,436.2,208.4
168,2,416,197.2,433.8,211.6
169,2,412,200.6,431.4,214.8
175,1,434,198,447,215
171,1,435.6,198,447,215
172,1,435.2,198,447,215
173,1,434.8,198,447,215
174,1,434.4,198,447,215
175,2,406,211,424,225
171,2,407.6,205.4,428,219.4
172,2,407.2,206.8,427,220.8
173,2,406.8,208.2,426,222.2
174,2,406.4,209.6,425,223.6
180,1,432,201,445,215
176,1,433.6,198.6,446.6,215
177,1,433.2,199.2,446.2,215
178,1,432.8,199.8,445.8,215
179,1,432.4,200.4,445.4,215
180,2,407,214,423,227
176,2,406.2,211.6,423.8,225.4
177,2,406.4,212.2,423.6,225.8
178,2,406.6,212.8,423.4,226.2
179,2,406.8,213.4,423.2,226.6
185,1,421,214,434,232
181,1,429.8,203.6,442.8,218.4
182,1,427.6,206.2,440.6,221.8
183,1,425.4,208.8,438.4,225.2
184,1,423.2,211.4,436.2,228.6
185,2,407,212,425,226
181,2,407,213.6,423.4,226.8
182,2,407,213.2,423.8,226.6
183,2,407,212.8,424.2,226.4
184,2,407,212.4,424.6,226.2
190,2,409,215,420,227
186,2,407.4,212.6,424,226.2
187,2,407.8,213.2,423,226.4
188,2,408.2,213.8,422,226.6
189,2,408.6,214.4,421,226.8
190,1,411,221,422,236
186,1,419,215.4,431.6,232.8
187,1,417,216.8,429.2,233.6
188,1,415,218.2,426.8,234.4
189,1,413,219.6,424.4,235.2
195,2,407,211,419,228
191,2,408.6,214.2,419.8,227.2
192,2,408.2,213.4,419.6,227.4
193,2,407.8,212.6,419.4,227.6
194,2,407.4,211.8,419.2,227.8
195,1,405,226,418,247
191,1,409.8,222,421.2,238.2
192,1,408.6,223,420.4,240.4
193,1,407.4,224,419.6,242.6
194,1,406.2,225,418.8,244.8
200,1,407,226,419,246
196,1,405.4,226,418.2,246.8
197,1,405.8,226,418.4,246.6
198,1,406.2,226,418.6,246.4
199,1,406.6,226,418.8,246.2
200,2,381,222,404,242
196,2,401.8,213.2,416,230.8
197,2,396.6,215.4,413,233.6
198,2,391.4,217.6,410,236.4
199,2,386.2,219.8,407,239.2
205,2,364,239,385,255
201,2,377.6,225.4,400.2,244.6
202,2,374.2,228.8,396.4,247.2
203,2,370.8,232.2,392.6,249.8
204,2,367.4,235.6,388.8,252.4
205,1,406,229,419,246
201,1,406.8,226.6,419,246
202,1,406.6,227.2,419,246
203,1,406.4,227.8,419,246
204,1,406.2,228.4,419,246
210,1,403,232,417,247
206,1,405.4,229.6,418.6,246.2
207,1,404.8,230.2,418.2,246.4
208,1,404.2,230.8,417.8,246.6
209,1,403.6,231.4,417.4,246.8
210,2,365,246,384,265
206,2,364.2,240.4,384.8,257
207,2,364.4,241.8,384.6,259
208,2,364.6,243.2,384.4,261
209,2,364.8,244.6,384.2,263
215,2,364,247,384,268
211,2,364.8,246.2,384,265.6
212,2,364.6,246.4,384,266.2
213,2,364.4,246.6,384,266.8
214,2,364.2,246.8,384,267.4
215,1,385,241,401,256
211,1,399.4,233.8,413.8,248.8
212,1,395.8,235.6,410.6,250.6
213,1,392.2,237.4,407.4,252.4
214,1,388.6,239.2,404.2,254.2
220,2,363,246,380,265
216,2,363.8,246.8,383.2,267.4
217,2,363.6,246.6,382.4,266.8
218,2,363.4,246.4,381.6,266.2
219,2,363.2,246.2,380.8,265.6
220,1,368,260,383,280
216,1,381.6,244.8,397.4,260.8
217,1,378.2,248.6,393.8,265.6
218,1,374.8,252.4,390.2,270.4
219,1,371.4,256.2,386.6,275.2
225,2,363,247,376,268
221,2,363,246.2,379.2,265.6
222,2,363,246.4,378.4,266.2
223,2,363,246.6,377.6,266.8
224,2,363,246.8,376.8,267.4
225,1,361,263,376,290
221,1,366.6,260.6,381.6,282
222,1,365.2,261.2,380.2,284
223,1,363.8,261.8,378.8,286
224,1,362.4,262.4,377.4,288
230,1,362,266,376,291
226,1,361.2,263.6,376,290.2
227,1,361.4,264.2,376,290.4
228,1,361.6,264.8,376,290.6
229,1,361.8,265.4,376,290.8
230,2,345,254,366,277
226,2,359.4,248.4,374,269.8
227,2,355.8,249.8,372,271.6
228,2,352.2,251.2,370,273.4
229,2,348.6,252.6,368,275.2
235,1,361,268,377,290
231,1,361.8,266.4,376.2,290.8
232,1,361.6,266.8,376.4,290.6
233,1,361.4,267.2,376.6,290.4
234,1,361.2,267.6,376.8,290.2
235,2,310,282,337,300
231,2,338,259.6,360.2,281.6
232,2,331,265.2,354.4,286.2
233,2,324,270.8,348.6,290.8
234,2,317,276.4,342.8,295.4
240,2,313,297,335,320
236,2,310.6,285,336.6,304
237,2,311.2,288,336.2,308
238,2,311.8,291,335.8,312
239,2,312.4,294,335.4,316
240,1,361,269,377,291
236,1,361,268.2,377,290.2
237,1,361,268.4,377,290.4
238,1,361,268.6,377,290.6
239,1,361,268.8,377,290.8
245,1,347,281,365,303
241,1,358.2,271.4,374.6,293.4
242,1,355.4,273.8,372.2,295.8
243,1,352.6,276.2,369.8,298.2
244,1,349.8,278.6,367.4,300.6
245,2,313,297,336,320
241,2,313,297,335.2,320
242,2,313,297,335.4,320
243,2,313,297,335.6,320
244,2,313,297,335.8,320
250,2,313,296,335,316
246,2,313,296.8,335.8,319.2
247,2,313,296.6,335.6,318.4
248,2,313,296.4,335.4,317.6
249,2,313,296.2,335.2,316.8
250,1,314,314,333,341
246,1,340.4,287.6,358.6,310.6
247,1,333.8,294.2,352.2,318.2
248,1,327.2,300.8,345.8,325.8
249,1,320.6,307.4,339.4,333.4
255,1,295,326,316,357
251,1,310.2,316.4,329.6,344.2
252,1,306.4,318.8,326.2,347.4
253,1,302.6,321.2,322.8,350.6
254,1,298.8,323.6,319.4,353.8
255,2,310,292,336,321
251,2,312.4,295.2,335.2,317
252,2,311.8,294.4,335.4,318
253,2,311.2,293.6,335.6,319
254,2,310.6,292.8,335.8,320
260,2,296,297,313,325
256,2,307.2,293,331.4,321.8
257,2,304.4,294,326.8,322.6
258,2,301.6,295,322.2,323.4
259,2,298.8,296,317.6,324.2
260,1,292,328,315,360
256,1,294.4,326.4,315.8,357.6
257,1,293.8,326.8,315.6,358.2
258,1,293.2,327.2,315.4,358.8
259,1,292.6,327.6,315.2,359.4
265,1,294,327,315,361
261,1,292.4,327.8,315,360.2
262,1,292.8,327.6,315,360.4
263,1,293.2,327.4,315,360.6
264,1,293.6,327.2,315,360.8
265,2,236,343,272,364
261,2,284,306.2,304.8,332.8
262,2,272,315.4,296.6,340.6
263,2,260,324.6,288.4,348.4
264,2,248,333.8,280.2,356.2
270,2,216,362,249,386
266,2,232,346.8,267.4,368.4
267,2,228,350.6,262.8,372.8
268,2,224,354.4,258.2,377.2
269,2,220,358.2,253.6,381.6
270,1,292,329,314,361
266,1,293.6,327.4,314.8,361
267,1,293.2,327.8,314.6,361
268,1,292.8,328.2,314.4,361
269,1,292.4,328.6,314.2,361
275,1,282,326,303,361
271,1,290,328.4,311.8,361
272,1,288,327.8,309.6,361
273,1,286,327.2,307.4,361
274,1,284,326.6,305.2,361
275,2,216,369,250,397
271,2,216,363.4,249.2,388.2
272,2,216,364.8,249.4,390.4
273,2,216,366.2,249.6,392.6
274,2,216,367.6,249.8,394.8
280,2,215,366,248,397
276,2,215.8,368.4,249.6,397
277,2,215.6,367.8,249.2,397
278,2,215.4,367.2,248.8,397
279,2,215.2,366.6,248.4,397
280,1,223,384,257,417
276,1,270.2,337.6,293.8,372.2
277,1,258.4,349.2,284.6,383.4
278,1,246.6,360.8,275.4,394.6
279,1,234.8,372.4,266.2,405.8
282,1,199,399,225,421
281,1,211,391.5,241,419
282,2,208,368,251,393
281,2,211.5,367,249.5,395
285,2,217,363,248,395
283,2,211,366.33,250,393.67
284,2,214,364.67,249,394.33
290,2,213,360,231,396
286,2,216.2,362.4,244.6,395.2
287,2,215.4,361.8,241.2,395.4
288,2,214.6,361.2,237.8,395.6
289,2,213.8,360.6,234.4,395.8
294,2,149,394,184,419
291,2,197,368.5,219.25,401.75
292,2,181,377,207.5,407.5
293,2,165,385.5,195.75,413.25
