50,2,330.68,358.32,359.42,400.72
60,2,327.41,371.82,356.65,395.97
51,2,328.37,354.47,360.87,399.26
52,2,326.7,370.43,353.75,401.78
53,2,327.12,371.15,353.54,402.85
54,2,327.12,371.5,353.75,400.36
55,2,328.59,369.01,355.64,397.15
56,2,327.83,364.11,358.53,397.43
57,2,327.73,366.04,358.06,397.07
58,2,327.62,367.97,357.59,396.7
59,2,327.51,369.9,357.12,396.34
60,1,314.43,360.38,337.65,390.67
59,1,310.2,370.15,331,398.9
58,1,304.93,377.41,326.56,401
57,1,301.02,382.15,323.19,413.28
56,1,294.19,388.6,320.62,419.95
55,1,293.98,401.07,316,420.31
49,2,329.22,370.08,358.37,403.57
48,2,325.02,381.12,355.43,418.88
47,2,323.55,401.43,351.03,419.6
70,2,337.6,341.93,364.03,380.77
61,2,328.43,368.84,357.39,394.45
62,2,327.96,371.15,355.43,396.08
63,2,326.91,369.01,355.01,395.73
64,2,329.01,369.01,355.01,396.08
65,2,329.01,364.38,355.01,392.88
66,2,330.26,368.65,357.74,393.23
67,2,331.31,365.8,355.43,391.1
68,2,334.88,358.68,356.69,387.89
69,2,335.3,355.83,358.58,383.62
70,1,346.2,324.12,369.06,359.75
61,1,317.6,356.75,340.79,387.58
62,1,320.78,353.13,343.93,384.48
63,1,323.96,349.5,347.07,381.39
64,1,327.14,345.88,350.21,378.3
65,1,330.31,342.25,353.36,375.21
66,1,333.49,338.62,356.5,372.12
67,1,336.67,335,359.64,369.02
68,1,339.85,331.37,362.78,365.93
69,1,343.03,327.75,365.92,362.84
80,1,346.62,317,369.9,343
71,1,346.25,323.41,369.15,358.07
72,1,346.29,322.7,369.23,356.4
73,1,346.33,321.98,369.31,354.72
74,1,346.37,321.27,369.4,353.05
75,1,346.41,320.56,369.48,351.38
76,1,346.46,319.85,369.57,349.7
77,1,346.5,319.13,369.65,348.03
78,1,346.54,318.42,369.73,346.35
79,1,346.58,317.71,369.82,344.68
80,2,377.87,280.3,399.68,307.73
71,2,341.63,335.77,367.6,373.46
72,2,345.66,329.61,371.16,366.16
73,2,349.68,323.44,374.73,358.86
74,2,353.71,317.28,378.29,351.55
75,2,357.74,311.12,381.86,344.25
76,2,363.82,311.65,387.31,335.88
77,2,367.18,308.09,391.5,333.38
78,2,373.47,302.39,395.49,327.33
79,2,373.84,286.47,396.12,315.04
90,1,364.45,276.38,383.74,302.75
81,1,348.41,312.94,371.29,338.98
82,1,347.25,319.85,371.58,340.51
83,1,347.46,314.86,369.69,338.37
84,1,348.72,308.8,371.58,334.81
85,1,351.03,298.12,371.58,331.6
86,1,352.08,291.35,372,326.26
87,1,355.01,287.43,373.89,315.93
88,1,357.74,282.08,377.87,311.3
89,1,362.67,280.45,382.36,306.77
90,2,376.19,281.02,397.17,305.6
81,2,377.7,280.37,399.43,307.52
82,2,377.54,280.45,399.18,307.31
83,2,377.37,280.52,398.93,307.09
84,2,377.2,280.59,398.68,306.88
85,2,377.03,280.66,398.42,306.67
86,2,376.86,280.73,398.17,306.45
87,2,376.7,280.8,397.92,306.24
88,2,376.53,280.87,397.67,306.02
89,2,376.36,280.94,397.42,305.81
100,2,380.78,267.06,400.85,298.78
91,2,376.65,279.62,397.53,304.91
92,2,377.11,278.22,397.9,304.23
93,2,377.57,276.83,398.27,303.55
94,2,378.03,275.43,398.64,302.87
95,2,378.49,274.04,399.01,302.19
96,2,378.95,272.64,399.37,301.5
97,2,379.41,271.24,399.74,300.82
98,2,379.87,269.85,400.11,300.14
99,2,380.32,268.45,400.48,299.46
100,1,387.77,260.41,403.52,286.99
91,1,366.78,274.79,385.72,301.17
92,1,369.11,273.19,387.7,299.6
93,1,371.45,271.59,389.68,298.02
94,1,373.78,270,391.65,296.45
95,1,376.11,268.4,393.63,294.87
96,1,378.44,266.8,395.61,293.3
97,1,380.77,265.2,397.59,291.72
98,1,383.1,263.61,399.57,290.15
99,1,385.44,262.01,401.54,288.57
110,1,390.3,251.05,407.68,274.61
101,1,388.81,255.58,405.6,279.14
102,1,388.96,256.18,406.05,277.33
103,1,389.55,253.77,406.94,274.91
104,1,389.55,250.74,407.24,274.01
105,1,388.81,250.14,407.39,274.31
106,1,389.4,250.14,408.13,274.31
107,1,389.85,249.54,407.98,272.19
108,1,389.79,252.92,406.85,277.09
109,1,390.04,251.98,407.27,275.85
110,2,415.11,224.16,432.2,254.37
101,2,384.22,262.77,403.98,294.34
102,2,387.65,258.48,407.12,289.89
103,2,391.08,254.19,410.25,285.45
104,2,394.52,249.9,413.39,281.01
105,2,399.36,249.84,414.52,271.29
106,2,402.33,250.44,418.38,273.1
107,2,405.16,245.61,421.5,268.57
108,2,407.09,240.78,425.81,264.04
109,2,411.99,240.17,428.34,261.02
120,1,403.67,222.35,417.49,249.54
111,1,390.3,255.28,407.83,274.31
112,1,388.96,253.46,407.98,273.1
113,1,389.25,250.74,408.13,272.19
114,1,390,248.33,406.94,269.78
115,1,390.3,245.61,407.24,267.06
116,1,393.71,238.96,408.28,264.04
117,1,396.69,232.62,410.8,260.71
118,1,398.62,228.99,412.88,258.3
119,1,401.29,226.28,414.67,251.65
120,2,416.3,229.3,432.8,251.65
111,2,416.15,226.28,432.35,249.54
112,2,417.05,229.6,433.99,248.33
113,2,416.45,229.6,431.91,249.84
114,2,415.86,231.71,431.46,250.14
115,2,415.56,232.32,431.61,250.44
116,2,416,232.62,431.91,251.05
117,2,416,233.53,431.91,251.35
118,2,416,233.83,431.91,252.26
119,2,416.18,228.78,432.74,251.92
130,2,417.64,221.14,432.35,247.72
121,2,416.44,228.48,432.75,251.26
122,2,416.57,227.67,432.71,250.87
123,2,416.7,226.85,432.66,250.47
124,2,416.84,226.03,432.62,250.08
125,2,416.97,225.22,432.57,249.69
126,2,417.1,224.4,432.53,249.29
127,2,417.24,223.59,432.49,248.9
128,2,417.37,222.77,432.44,248.51
129,2,417.51,221.96,432.4,248.12
130,1,425.66,208.15,441.12,230.81
121,1,405.87,220.93,419.85,247.66
122,1,408.07,219.51,422.22,245.79
123,1,410.27,218.09,424.58,243.92
124,1,412.47,216.67,426.94,242.04
125,1,414.67,215.25,429.31,240.17
126,1,416.87,213.83,431.67,238.3
127,1,419.07,212.41,434.03,236.43
128,1,421.27,210.99,436.39,234.55
129,1,423.47,209.57,438.76,232.68
140,1,426.91,218.53,442.54,232.05
131,1,425.86,208.39,441.36,230.96
132,1,426.05,208.63,441.6,231.11
133,1,426.24,208.88,441.83,231.26
134,1,426.44,209.12,442.07,231.41
135,1,426.63,209.36,442.31,231.56
136,1,426.82,209.6,442.55,231.71
137,1,427.02,209.84,442.78,231.86
138,1,427.21,210.08,443.02,232.02
139,1,427.4,210.33,443.26,232.17
140,2,444.98,199.99,460.29,220.54
131,2,420.37,219.03,435.15,245.01
132,2,423.11,216.91,437.94,242.29
133,2,425.84,214.8,440.73,239.57
134,2,428.58,212.68,443.53,236.85
135,2,431.31,210.57,446.32,234.13
136,2,434.05,208.45,449.12,231.41
137,2,436.78,206.34,451.91,228.69
138,2,439.52,204.22,454.7,225.97
139,2,442.25,202.11,457.5,223.26
150,1,434.22,192.18,446.82,214.86
141,1,427.69,217.61,442.32,231.59
142,1,427.92,215.09,442.54,230.91
143,1,428.14,215.32,442.32,230.68
144,1,428.37,212.8,442.09,229.3
145,1,429.83,209.36,442.88,226.55
146,1,430.51,205.7,442.54,225.64
147,1,431.18,200.2,442.88,221.74
148,1,432.89,195.86,446.15,218.36
149,1,433.56,194.02,446.49,216.61
150,2,445.92,199.05,458.74,215.32
141,2,447.61,190.34,461.67,215.09
142,2,448.06,189.89,462.23,212.8
143,2,448.39,193.09,461.33,215.09
144,2,445.36,199.62,459.67,218.45
145,2,445.45,199.52,459.52,217.93
146,2,445.54,199.43,459.36,217.41
147,2,445.64,199.33,459.21,216.89
148,2,445.73,199.24,459.05,216.37
149,2,445.83,199.15,458.9,215.84
160,2,447.16,191.72,458.97,213.95
151,2,446.04,198.32,458.77,215.19
152,2,446.17,197.59,458.79,215.05
153,2,446.29,196.85,458.81,214.91
154,2,446.41,196.12,458.83,214.77
155,2,446.54,195.39,458.86,214.64
156,2,446.66,194.65,458.88,214.5
157,2,446.78,193.92,458.9,214.36
158,2,446.91,193.19,458.92,214.22
159,2,447.03,192.45,458.95,214.09
160,1,449.07,186.91,461.78,203.86
151,1,435.7,191.65,448.32,213.76
152,1,437.19,191.12,449.81,212.66
153,1,438.67,190.6,451.31,211.56
154,1,440.16,190.07,452.8,210.46
155,1,441.64,189.54,454.3,209.36
156,1,443.13,189.01,455.8,208.26
157,1,444.61,188.49,457.29,207.16
158,1,446.1,187.96,458.79,206.06
159,1,447.58,187.43,460.29,204.96
170,1,449.86,185.07,461.44,202.49
161,1,449.15,186.72,461.75,203.73
162,1,449.23,186.54,461.71,203.59
163,1,449.3,186.36,461.68,203.45
164,1,449.38,186.17,461.65,203.31
165,1,449.46,185.99,461.61,203.18
166,1,449.54,185.81,461.58,203.04
167,1,449.62,185.62,461.54,202.9
168,1,449.7,185.44,461.51,202.76
169,1,449.78,185.26,461.48,202.63
170,2,461.67,176.14,473.93,196.07
161,2,448.61,190.16,460.47,212.16
162,2,450.06,188.6,461.96,210.37
163,2,451.51,187.04,463.46,208.59
164,2,452.96,185.49,464.95,206.8
165,2,454.41,183.93,466.45,205.01
166,2,455.86,182.37,467.95,203.22
167,2,457.32,180.81,469.44,201.44
168,2,458.77,179.25,470.94,199.65
169,2,460.22,177.69,472.43,197.86
180,1,452.56,168.34,462.68,189.66
171,1,450.13,183.4,461.57,201.21
172,1,449.52,185.53,461.33,203.41
173,1,449.97,186.22,462.46,202.03
174,1,449.74,185.3,462.46,200.89
175,1,449.86,184.61,460.88,201.11
176,1,452.33,183.47,461.44,197.45
177,1,449.97,178.89,461.33,195.61
178,1,452.67,174.07,461.22,194.7
179,1,452.29,170.02,462.56,190.94
180,2,460.32,175.68,469.99,193.32
171,2,464.14,174.76,474.72,191.26
172,2,464.37,167.89,475.39,187.82
173,2,463.69,168.57,475.17,187.14
174,2,462.23,174.3,473.48,191.72
175,2,460.99,175.91,471.96,194.7
176,2,461.89,170.18,471.46,190.34
177,2,460.72,175.81,471.17,194.15
178,2,460.59,175.77,470.78,193.87
179,2,460.45,175.72,470.39,193.6
190,2,461.33,168.8,472.24,189.43
181,2,460.42,174.99,470.22,192.93
182,2,460.52,174.3,470.44,192.54
183,2,460.62,173.61,470.67,192.15
184,2,460.72,172.93,470.89,191.76
185,2,460.82,172.24,471.12,191.38
186,2,460.93,171.55,471.34,190.99
187,2,461.03,170.86,471.57,190.6
188,2,461.13,170.18,471.79,190.21
189,2,461.23,169.49,472.02,189.82
190,1,456.83,161.7,468.08,180.49
181,1,452.98,167.68,463.22,188.74
182,1,453.41,167.01,463.76,187.82
183,1,453.84,166.35,464.3,186.91
184,1,454.27,165.69,464.84,185.99
185,1,454.69,165.02,465.38,185.07
186,1,455.12,164.36,465.92,184.16
187,1,455.55,163.69,466.46,183.24
188,1,455.98,163.03,467,182.32
189,1,456.4,162.36,467.54,181.41
200,1,456.38,157.8,466.51,177.74
191,1,456.79,161.31,467.92,180.21
192,1,456.74,160.92,467.77,179.94
193,1,456.7,160.53,467.61,179.66
194,1,456.65,160.14,467.45,179.39
195,1,456.61,159.75,467.29,179.11
196,1,456.56,159.36,467.14,178.84
197,1,456.52,158.97,466.98,178.56
198,1,456.47,158.58,466.82,178.29
199,1,456.43,158.19,466.66,178.01
200,2,463.58,158.26,473.82,176.59
191,2,461.56,167.75,472.4,188.14
192,2,461.78,166.69,472.56,186.86
193,2,462.01,165.64,472.72,185.58
194,2,462.23,164.59,472.87,184.29
195,2,462.46,163.53,473.03,183.01
196,2,462.68,162.48,473.19,181.73
197,2,462.91,161.42,473.35,180.44
198,2,463.13,160.37,473.5,179.16
199,2,463.36,159.31,473.66,177.88
210,1,454.36,150.01,464.48,173.84
201,1,456.18,157.02,466.3,177.35
202,1,455.98,156.24,466.1,176.96
203,1,455.77,155.46,465.9,176.57
204,1,455.57,154.69,465.7,176.18
205,1,455.37,153.91,465.49,175.79
206,1,455.17,153.13,465.29,175.4
207,1,454.96,152.35,465.09,175.01
208,1,454.76,151.57,464.89,174.62
209,1,454.56,150.79,464.68,174.23
210,2,457.48,147.85,467.75,162.66
201,2,462.71,156.91,473.13,175.1
202,2,461.85,155.56,472.45,173.61
203,2,459.76,152.53,471.23,166.97
204,2,458.63,149.78,470.11,164.22
205,2,457.96,149.32,468.08,163.99
206,2,456.61,146.8,467.07,162.16
207,2,456.61,147.26,468.76,164.22
208,2,456.65,147.44,468.33,164.68
209,2,455.78,146.09,467.64,163.19
220,1,447.21,142.06,456.84,157.72
211,1,453.95,152.14,464.43,168.45
212,1,453.74,153.22,463.25,168.02
213,1,451.49,154.07,461.33,168.24
214,1,449.46,153,460.58,166.52
215,1,450.98,143.02,460.94,166.17
216,1,448.39,147.64,458.65,163.3
217,1,448.07,147.85,457.59,162.44
218,1,447.75,143.13,457.37,159.87
219,1,448.92,141.41,456.52,156.65
220,2,456.41,151.71,465.39,167.81
211,2,459.08,143.77,468.39,162.23
212,2,457.91,145.06,468.07,162.87
213,2,458.33,144.63,467.85,164.37
214,2,456.73,144.85,466.57,165.23
215,2,457.26,150.43,467.32,166.52
216,2,455.87,150.64,465.82,166.52
217,2,456.52,151.28,466.35,166.95
218,2,456.84,149.78,466.46,168.24
219,2,456.73,151.5,466.46,168.67
230,1,447.1,145.28,456.3,158.37
221,1,447.2,142.38,456.78,157.79
222,1,447.19,142.7,456.73,157.85
223,1,447.18,143.02,456.68,157.92
224,1,447.17,143.34,456.62,157.98
225,1,447.16,143.67,456.57,158.04
226,1,447.15,143.99,456.52,158.11
227,1,447.14,144.31,456.46,158.17
228,1,447.13,144.63,456.41,158.24
229,1,447.12,144.95,456.36,158.3
230,2,455.34,146.13,464,159.22
221,2,456.3,151.16,465.25,166.95
222,2,456.2,150.6,465.11,166.09
223,2,458.23,148.71,465.82,165.88
224,2,458.01,147.64,466.68,166.73
225,2,458.01,145.28,466.14,163.3
226,2,457.37,143.99,464.86,159.22
227,2,457.05,144.2,464.86,159.22
228,2,457.26,145.06,464.11,159.87
229,2,455.45,146.69,464.14,160.08
240,1,447.85,138.41,456.2,154.72
231,1,447.18,144.59,456.29,158
232,1,447.25,143.9,456.28,157.64
233,1,447.33,143.22,456.27,157.27
234,1,447.4,142.53,456.26,156.91
235,1,447.48,141.84,456.25,156.54
236,1,447.55,141.16,456.24,156.18
237,1,447.63,140.47,456.23,155.81
238,1,447.7,139.78,456.22,155.45
239,1,447.78,139.1,456.21,155.08
240,2,450.63,137.12,459.3,152.14
231,2,454.88,145.32,463.61,158.6
232,2,454.06,143.56,462.93,154.5
233,2,453.74,140.56,462.72,153.64
234,2,454.59,137.55,462.61,151.28
235,2,452.24,135.19,460.26,151.07
236,2,451.7,136.05,460.69,150.21
237,2,449.89,135.41,460.37,149.14
238,2,450.1,134.98,460.26,150.64
239,2,450.21,135.62,460.15,149.57
250,2,451.6,138.84,459.72,152.57
241,2,451.06,137.34,459.72,151.07
242,2,451.6,136.48,459.72,150.86
243,2,452.02,135.62,459.62,148.07
244,2,451.92,136.91,460.26,151.93
245,2,451.81,138.41,460.69,152.14
246,2,452.13,138.41,460.79,153.43
247,2,452.24,138.41,460.47,153
248,2,452.56,139.05,460.69,152.79
249,2,451.6,139.05,460.15,153.22
250,1,446.57,133.47,454.8,145.06
241,1,447.74,137.27,456.05,153.69
242,1,447.62,136.13,455.9,152.66
243,1,447.5,135,455.75,151.63
244,1,447.38,133.86,455.6,150.6
245,1,446.25,136.48,454.91,149.35
246,1,446.14,135.41,454.91,149.14
247,1,446.04,136.26,454.91,150
248,1,446.04,135.41,454.7,148.92
249,1,444.97,136.91,454.38,148.71
260,1,448.92,131.33,456.62,143.99
251,1,447.32,131.97,455.55,144.42
252,1,447.96,131.97,455.66,143.56
253,1,448.82,132.4,455.55,144.2
254,1,449.14,131.33,456.41,143.13
255,1,448.82,131.76,457.26,142.7
256,1,448.92,130.68,457.59,142.92
257,1,448.39,131.11,457.48,143.77
258,1,448.71,132.4,457.05,144.42
259,1,449.03,131.76,457.26,144.2
260,2,454.91,129.83,463.04,141.84
251,2,451.93,137.94,460.06,151.5
252,2,452.26,137.04,460.39,150.43
253,2,452.59,136.13,460.72,149.35
254,2,452.92,135.23,461.05,148.28
255,2,453.25,134.33,461.38,147.21
256,2,453.59,133.43,461.71,146.13
257,2,453.92,132.53,462.04,145.06
258,2,454.25,131.63,462.38,143.99
259,2,454.58,130.73,462.71,142.92
270,1,448.71,131.33,456.73,142.7
261,1,448.9,131.33,456.63,143.86
262,1,448.88,131.33,456.64,143.73
263,1,448.86,131.33,456.65,143.6
264,1,448.84,131.33,456.67,143.47
265,1,448.82,131.33,456.68,143.34
266,1,448.79,131.33,456.69,143.22
267,1,448.77,131.33,456.7,143.09
268,1,448.75,131.33,456.71,142.96
269,1,448.73,131.33,456.72,142.83
270,2,439.4,125.96,448.82,137.12
261,2,453.36,129.44,461.62,141.37
262,2,451.81,129.05,460.19,140.9
263,2,450.26,128.67,458.77,140.43
264,2,448.71,128.28,457.35,139.95
265,2,447.16,127.89,455.93,139.48
266,2,445.61,127.51,454.51,139.01
267,2,444.06,127.12,453.08,138.54
268,2,442.51,126.74,451.66,138.07
269,2,440.96,126.35,450.24,137.59
271,1,447.64,130.26,456.62,143.34
272,1,447.32,128.11,454.7,143.13
273,1,444.32,125.11,453.2,139.05
274,1,442.29,123.17,450.31,138.84
271,2,439.19,126.61,449.56,136.91
272,2,439.08,126.39,449.14,137.34
273,2,439.94,127.25,450.21,138.62
274,2,438.87,126.18,449.89,138.84
